<?xml version="1.0" encoding="utf-8"?>
<!-- Generator: Adobe Illustrator 22.1.0, SVG Export Plug-In . SVG Version: 6.00 Build 0)  -->
<svg version="1.1" id="rk7l1uPKHOM" xmlns="http://www.w3.org/2000/svg" xmlns:xlink="http://www.w3.org/1999/xlink" x="0px"
	 y="0px" viewBox="0 0 44 44" style="enable-background:new 0 0 44 44;" xml:space="preserve">
<style type="text/css">
	.st0{display:none;fill-rule:evenodd;clip-rule:evenodd;fill:#FFFFFF;}
	.st1{fill-rule:evenodd;clip-rule:evenodd;fill:#E0E0E0;}
	.st2{fill-rule:evenodd;clip-rule:evenodd;fill:#FFFFFF;}
	.st3{fill-rule:evenodd;clip-rule:evenodd;fill:#006096;}
	.st4{fill-rule:evenodd;clip-rule:evenodd;fill:#39B7E7;}
</style>
<path class="st0" d="M37.6,23.7c-0.1,0.1-0.1,0.1-0.2,0.2c-0.8,5.7-4.7,10.4-10,12.4l0.6,0.6l1.2,1.2l1.9,1.9
	c-1.4,0.3-2.9,0.5-4.4,0.5c-4.1,0-7.9-1.2-11.1-3.3C11.9,34.8,8,30,6.9,25.6c-0.1-0.5-0.2-1.1-0.3-1.6c1.9,2.2,4.6,3.6,7.7,3.6
	c1.7,0,3.2-0.4,4.6-1.1c0.8,1.1,1.9,2,3.1,2.7c1.3-0.7,2.4-1.6,3.2-2.8c1.4,0.7,2.9,1.1,4.6,1.1C32.9,27.5,35.7,26,37.6,23.7z"/>
<path class="st1" d="M14.2,27.6c1.7,0,3.2-0.4,4.6-1.1c0.8,1.1,1.9,2,3.1,2.7c1.3-0.7,2.4-1.6,3.2-2.8c1.4,0.7,2.9,1.1,4.6,1.1
	c3.2,0,6-1.4,7.9-3.7c-0.1,0.1-0.1,0.1-0.2,0.2c-0.8,5.7-4.7,10.4-10,12.4l0.6,0.6l1.2,1.2l1.9,1.9c-1.4,0.3-2.9,0.5-4.4,0.5
	c-4.1,0-7.9-1.2-11.1-3.3C11.9,34.8,8,30,6.9,25.6c-0.1-0.5-0.2-1.1-0.3-1.6C8.4,26.2,11.2,27.6,14.2,27.6z"/>
<path class="st2" d="M39.9,17.3c0,2.2-0.7,4.3-1.9,5.9c-0.1,0.2-0.3,0.4-0.4,0.6c-1.9,2.3-4.7,3.7-7.9,3.7c-1.6,0-3.2-0.4-4.6-1.1
	c-0.7-0.4-1.4-0.8-2-1.4c-0.4-0.3-0.8-0.7-1.1-1.1c-0.2-0.2-0.4-0.4-0.5-0.7c-0.1-0.1-0.1-0.2-0.2-0.3c-0.5-0.8-0.9-1.6-1.2-2.5
	c-0.3-1-0.5-2-0.5-3.1c0-1.1,0.2-2.2,0.5-3.2c0.3-0.9,0.7-1.7,1.2-2.4c0.2-0.3,0.5-0.7,0.8-1c0.2-0.2,0.3-0.4,0.5-0.6
	c0.2-0.2,0.4-0.4,0.6-0.6c0,0,0.1-0.1,0.1-0.1C23.5,9.2,23.8,9,24,8.8c0.5-0.3,1-0.6,1.5-0.8c0.2-0.1,0.3-0.1,0.5-0.2
	c0.5-0.2,1-0.4,1.6-0.5c0.2,0,0.4-0.1,0.5-0.1c0.2,0,0.4-0.1,0.6-0.1C29,7,29.4,7,29.7,7h0c0.7,0,1.4,0.1,2.1,0.2
	c0.3,0.1,0.5,0.1,0.8,0.2c0,0,0.1,0,0.1,0c0.3,0.1,0.6,0.2,0.9,0.3c0.5,0.2,1,0.4,1.4,0.7c0.1,0.1,0.2,0.1,0.3,0.2
	c0.1,0.1,0.3,0.2,0.4,0.3C38.3,10.9,39.9,13.9,39.9,17.3z"/>
<path class="st2" d="M24.4,17.3c0,1.1-0.2,2.1-0.4,3c-0.3,0.9-0.7,1.8-1.2,2.6c-0.1,0.1-0.1,0.2-0.2,0.3c-0.2,0.2-0.3,0.5-0.5,0.7
	c-0.3,0.4-0.7,0.8-1.1,1.2c-0.6,0.6-1.3,1-2,1.4c-1.4,0.7-3,1.1-4.6,1.1c-3.1,0-5.8-1.4-7.7-3.6c-0.2-0.2-0.4-0.5-0.6-0.8
	c0,0,0,0,0,0c-1.2-1.7-1.8-3.7-1.8-5.9c0-2.9,1.2-5.6,3.1-7.5c1.8-1.8,4.3-2.9,7-2.9c3.1,0,5.9,1.4,7.8,3.7c0,0,0,0,0,0
	c0.3,0.3,0.5,0.7,0.7,1c0.5,0.8,0.9,1.6,1.2,2.5C24.2,15.1,24.4,16.2,24.4,17.3z"/>
<path class="st3" d="M38.6,0.7c0.6,1.7,0.7,3.6,0.2,5.4c-0.4,1.4-1.1,2.7-2,3.7c-1.8-1.7-4.3-2.8-7-2.8c-3,0-5.8,1.3-7.8,3.6
	C20.1,8.4,17.3,7,14.2,7c-2.7,0-5.2,1.1-7,2.8c-0.9-1-1.7-2.3-2-3.7C4.7,4.2,4.8,2.3,5.4,0.7c0.1,0.4,0.3,0.9,0.4,1.3
	c1.5,3.3,5.5,4.7,8.8,3.2c0,0,2.8-1.5,7.4-1.5c4.6,0,7.4,1.5,7.4,1.5c3.3,1.5,7.2,0.1,8.8-3.2C38.3,1.5,38.5,1.1,38.6,0.7z"/>
<path class="st3" d="M31.5,37l4.2,4.2c-0.8,0.3-1.6,0.6-2.5,0.9c-2,0.6-4.2,0.9-6.4,0.9c-4.6,0-8.8-1.3-12.4-3.7
	c-4.3-2.8-8.6-8.1-9.9-13.2c-0.2-1-0.4-2-0.5-3C4,22.7,4,22.2,4,21.7c0-0.9,0.1-1.8,0.2-2.7c0.3,1.5,0.9,2.9,1.8,4.2c0,0,0,0,0,0
	c0.2,0.3,0.4,0.5,0.6,0.7c0,0,0,0,0,0c0.1,0.5,0.2,1.1,0.3,1.6c1.1,4.4,5.1,9.3,8.8,11.7c3.2,2.1,7,3.3,11.1,3.3
	c1.5,0,3-0.2,4.4-0.5l-1.9-1.9L28.1,37l-0.6-0.6c5.3-2,9.2-6.7,10-12.4c0.1-0.1,0.1-0.1,0.2-0.2c0.2-0.2,0.3-0.4,0.4-0.6
	c0.9-1.2,1.5-2.6,1.8-4.2c0.1,0.9,0.2,1.8,0.2,2.7c0,0.5,0,1-0.1,1.5C39.5,29,36.2,34.1,31.5,37z"/>
<path class="st3" d="M29.8,8.2c-2.8,0-5.4,1.3-7,3.4c-0.3,0.3-0.5,0.7-0.7,1.1c-0.2-0.4-0.5-0.7-0.7-1.1c-1.6-2.1-4.2-3.4-7-3.4
	c-5,0-9,4-9,9c0,2.3,0.8,4.4,2.2,5.9c1.6,1.9,4.1,3.1,6.8,3.1c1.4,0,2.8-0.3,3.9-0.9c0.2,0.4,0.4,0.7,0.7,1.1c0.8,1.1,1.9,2,3.1,2.7
	c1.3-0.7,2.4-1.6,3.2-2.8c0.2-0.3,0.4-0.7,0.6-1c1.2,0.6,2.5,0.9,3.9,0.9c2.7,0,5.1-1.2,6.8-3.1c1.4-1.6,2.2-3.7,2.2-5.9
	C38.8,12.3,34.7,8.2,29.8,8.2z M14.3,23.8c-1,0-1.9-0.2-2.7-0.6c-2.3-1-3.9-3.3-3.9-6c0-3.7,3-6.6,6.6-6.6c2.5,0,4.7,1.4,5.8,3.5
	c0.5,0.9,0.8,2,0.8,3.1c0,1.2-0.3,2.2-0.8,3.2c-0.7,1.3-1.8,2.3-3.1,2.8C16.1,23.6,15.2,23.8,14.3,23.8z M29.7,23.8
	c-1,0-1.9-0.2-2.7-0.6c-1.3-0.6-2.4-1.6-3.1-2.9c-0.5-0.9-0.8-2-0.8-3.1c0-1.1,0.3-2.2,0.8-3.1c1.1-2.1,3.3-3.5,5.8-3.5
	c3.7,0,6.6,3,6.6,6.6c0,2.7-1.6,5-3.9,6C31.6,23.6,30.7,23.8,29.7,23.8z"/>
<path class="st4" d="M28.3,13.3c1.5-0.5,3.2-0.2,4.4,1c1.6,1.6,1.6,4.3,0,6c-1.6,1.6-4.3,1.6-5.9,0c-1.2-1.2-1.5-2.9-1-4.4
	c0.2,0.1,0.3,0.2,0.5,0.2c1,0.3,1.9-0.3,2.2-1.3C28.7,14.2,28.6,13.7,28.3,13.3z"/>
<path class="st4" d="M12.8,13.3c1.5-0.5,3.2-0.2,4.4,1c1.6,1.6,1.6,4.3,0,6c-1.6,1.6-4.3,1.6-5.9,0c-1.2-1.2-1.5-2.9-1-4.4
	c0.2,0.1,0.3,0.2,0.5,0.2c1,0.3,1.9-0.3,2.2-1.3C13.1,14.2,13,13.7,12.8,13.3z"/>
<path class="st2" d="M22,26.2c0.7-0.6,1.3-1.4,1.8-2.2c-0.7-0.6-1.3-1.3-1.8-2.2c-0.5,0.8-1.1,1.5-1.8,2.2
	C20.6,24.8,21.3,25.6,22,26.2z"/>
</svg>
