<?xml version="1.0" standalone="no"?>
<!DOCTYPE svg PUBLIC "-//W3C//DTD SVG 20010904//EN"
 "http://www.w3.org/TR/2001/REC-SVG-20010904/DTD/svg10.dtd">
<svg version="1.0" xmlns="http://www.w3.org/2000/svg"
 width="189.000000pt" height="189.000000pt" viewBox="0 0 189.000000 189.000000"
 preserveAspectRatio="xMidYMid meet">
<metadata>
Created by potrace 1.11, written by Peter Selinger 2001-2013
</metadata>
<g transform="translate(0.000000,189.000000) scale(0.100000,-0.100000)"
fill="#000000" stroke="none">
<path d="M1720 1838 c0 -30 -37 -104 -71 -143 -72 -81 -192 -127 -339 -128
-58 0 -204 11 -242 19 -111 22 -129 22 -288 0 -162 -23 -220 -25 -305 -9 -105
19 -155 41 -211 95 -38 35 -58 66 -74 109 -14 36 -26 57 -32 51 -14 -14 -12
-172 2 -222 16 -52 72 -142 105 -169 l24 -18 -34 -48 c-177 -248 -201 -593
-63 -870 100 -200 280 -354 496 -424 91 -29 134 -35 252 -36 120 0 173 7 258
35 280 89 489 312 568 605 27 100 25 311 -4 415 -29 109 -116 283 -153 306 -7
4 4 22 30 48 43 44 84 124 100 194 11 53 7 164 -8 189 -9 16 -10 16 -11 1z"/>
</g>
</svg>
